strict digraph grafo3 {
	graph [bb="0,0,1734,17",
		id=grafo3,
		overlap=False
	];
	node [fontsize=8,
		label="\N",
		shape=rectangle,
		style=filled
	];
	0	 [URL="http://lattes.cnpq.br/7312882427932239",
		color="#000099",
		fontcolor="#FFFFFF",
		height=0.23611,
		label="Alexandre L'Erario [0]",
		pos="46,8.5",
		width=1.2778];
	1	 [URL="http://lattes.cnpq.br/5834088144837137",
		color="#000099",
		fontcolor="#FFFFFF",
		height=0.23611,
		label="Alexandre Rossi Paschoal [0]",
		pos="167,8.5",
		width=1.5694];
	2	 [URL="http://lattes.cnpq.br/3194328548975437",
		color="#000099",
		fontcolor="#FFFFFF",
		height=0.23611,
		label="Andre Yoshiaki Kashiwabara [0]",
		pos="304,8.5",
		width=1.7361];
	3	 [URL="http://lattes.cnpq.br/6377657274398145",
		color="#000099",
		fontcolor="#FFFFFF",
		height=0.23611,
		label="Danilo Sipoli Sanches [0]",
		pos="435,8.5",
		width=1.3889];
	4	 [URL="http://lattes.cnpq.br/3546986594133608",
		color="#000099",
		fontcolor="#FFFFFF",
		height=0.23611,
		label="Katia Romero Felizardo [0]",
		pos="557,8.5",
		width=1.4861];
	5	 [URL="http://lattes.cnpq.br/1484702906945243",
		color="#000099",
		fontcolor="#FFFFFF",
		height=0.23611,
		label="Luciano T. Esteves Pansanato [0]",
		pos="692,8.5",
		width=1.75];
	6	 [URL="http://lattes.cnpq.br/2177467029991118",
		color="#000099",
		fontcolor="#FFFFFF",
		height=0.23611,
		label="Pedro Henrique Bugatti [0]",
		pos="826,8.5",
		width=1.4583];
	7	 [URL="http://lattes.cnpq.br/6652293216938994",
		color="#000099",
		fontcolor="#FFFFFF",
		height=0.23611,
		label="Priscila T. Maeda Saito [0]",
		pos="950,8.5",
		width=1.4722];
	8	 [URL="http://lattes.cnpq.br/6530357704064110",
		color="#000099",
		fontcolor="#FFFFFF",
		height=0.23611,
		label="Vanderley Flor Da Rosa [0]",
		pos="1075,8.5",
		width=1.5];
	9	 [URL="http://lattes.cnpq.br/8946276875418151",
		color="#000099",
		fontcolor="#FFFFFF",
		height=0.23611,
		label="Willian Massami Watanabe [0]",
		pos="1206,8.5",
		width=1.6389];
	10	 [URL="http://lattes.cnpq.br/4221336619791961",
		color="#000099",
		fontcolor="#FFFFFF",
		height=0.23611,
		label="André Takeshi Endo [0]",
		pos="1331,8.5",
		width=1.3194];
	11	 [URL="http://lattes.cnpq.br/8904855809524041",
		color="#000099",
		fontcolor="#FFFFFF",
		height=0.23611,
		label="Érica Ferreira de Souza [0]",
		pos="1450,8.5",
		width=1.4861];
	12	 [URL="http://lattes.cnpq.br/1660070580824436",
		color="#000099",
		fontcolor="#FFFFFF",
		height=0.23611,
		label="Fabrício Martins Lopes [0]",
		pos="1574,8.5",
		width=1.4444];
	13	 [URL="http://lattes.cnpq.br/1834856723867705",
		color="#000099",
		fontcolor="#FFFFFF",
		height=0.23611,
		label="Jose Augusto Fabri [0]",
		pos="1689,8.5",
		width=1.25];
}
