Alexandre L'Erario
Alexandre Rossi Paschoal
Andre Yoshiaki Kashiwabara
Danilo Sipoli Sanches
Katia Romero Felizardo
Luciano Tadeu Esteves Pansanato
Pedro Henrique Bugatti
Priscila Tiemi Maeda Saito
Vanderley Flor Da Rosa
Willian Massami Watanabe
André Takeshi Endo
Érica Ferreira de Souza
Fabrício Martins Lopes
Jose Augusto Fabri
